carpet,2.25,2.10
laminate,1.75,2.10
tile,3.50,4.15
wood,5.15,4.75
tape,0.75,0.00
stone,15.00,10.00
ceramic,8.00,10.00
marble,40.00,20.00
bamboo,6.00,10.00
vinyl,2.00,100000
linoleum,4.50,8.00
cork,4.25,4.00
mosaic,60.00,22.00
terrazzo,65.00,20.00
supply own,0.00,30.00
